…
``` r
# We do grid approximation

(r <-
 tibble(p_grid            = seq(from = 0, to = 1, length.out = 1e4),  # define grid
        prior             = 1) %>%                                   # define prior
   mutate(likelihood      = dbinom(3, size = 6, prob = p_grid)) %>%  # compute likelihood at each value in grid
   mutate(unstd_posterior = likelihood * prior) %>%                  # compute product of likelihood and prior
   mutate(posterior       = unstd_posterior / sum(unstd_posterior))  # standardize the posterior, so it sums to 1
)
```

    ## # A tibble: 10,000 x 5
    ##      p_grid prior likelihood unstd_posterior posterior
    ##       <dbl> <dbl>      <dbl>           <dbl>     <dbl>
    ##  1 0            1   0.       0                0.      
    ##  2 0.000100     1   2.00e-11 0.0000000000200  1.40e-14
    ##  3 0.000200     1   1.60e-10 0.000000000160   1.12e-13
    ##  4 0.000300     1   5.40e-10 0.000000000540   3.78e-13
    ##  5 0.000400     1   1.28e- 9 0.00000000128    8.95e-13
    ##  6 0.000500     1   2.50e- 9 0.00000000250    1.75e-12
    ##  7 0.000600     1   4.31e- 9 0.00000000431    3.02e-12
    ##  8 0.000700     1   6.85e- 9 0.00000000685    4.79e-12
    ##  9 0.000800     1   1.02e- 8 0.0000000102     7.15e-12
    ## 10 0.000900     1   1.45e- 8 0.0000000145     1.02e-11
    ## # ... with 9,990 more rows
…
``` r
################# We do grid approximation for Kristian ################
(k <-
 tibble(p_grid            = seq(from = 0, to = 1, length.out = 1e4),  # define grid
        prior             = 1) %>%                                   # define prior
   mutate(likelihood      = dbinom(2, size = 2, prob = p_grid)) %>%  # compute likelihood at each value in grid
   mutate(unstd_posterior = likelihood * prior) %>%                  # compute product of likelihood and prior
   mutate(posterior       = unstd_posterior / sum(unstd_posterior))  # standardize the posterior, so it sums to 1
)
```

    ## # A tibble: 10,000 x 5
    ##      p_grid prior   likelihood unstd_posterior posterior
    ##       <dbl> <dbl>        <dbl>           <dbl>     <dbl>
    ##  1 0            1 0               0             0.      
    ##  2 0.000100     1 0.0000000100    0.0000000100  3.00e-12
    ##  3 0.000200     1 0.0000000400    0.0000000400  1.20e-11
    ##  4 0.000300     1 0.0000000900    0.0000000900  2.70e-11
    ##  5 0.000400     1 0.000000160     0.000000160   4.80e-11
    ##  6 0.000500     1 0.000000250     0.000000250   7.50e-11
    ##  7 0.000600     1 0.000000360     0.000000360   1.08e-10
    ##  8 0.000700     1 0.000000490     0.000000490   1.47e-10
    ##  9 0.000800     1 0.000000640     0.000000640   1.92e-10
    ## 10 0.000900     1 0.000000810     0.000000810   2.43e-10
    ## # ... with 9,990 more rows
…
``` r
################# We do a grid approximation for Josh ################
# We do grid approximation

(j <-
 tibble(p_grid            = seq(from = 0, to = 1, length.out = 1e4),  # define grid
        prior             = 1) %>%                                   # define prior
   mutate(likelihood      = dbinom(160, size = 198, prob = p_grid)) %>%  # compute likelihood at each value in grid
   mutate(unstd_posterior = likelihood * prior) %>%                  # compute product of likelihood and prior
   mutate(posterior       = unstd_posterior / sum(unstd_posterior))  # standardize the posterior, so it sums to 1
)
```

    ## # A tibble: 10,000 x 5
    ##      p_grid prior likelihood unstd_posterior posterior
    ##       <dbl> <dbl>      <dbl>           <dbl>     <dbl>
    ##  1 0            1          0               0         0
    ##  2 0.000100     1          0               0         0
    ##  3 0.000200     1          0               0         0
    ##  4 0.000300     1          0               0         0
    ##  5 0.000400     1          0               0         0
    ##  6 0.000500     1          0               0         0
    ##  7 0.000600     1          0               0         0
    ##  8 0.000700     1          0               0         0
    ##  9 0.000800     1          0               0         0
    ## 10 0.000900     1          0               0         0
    ## # ... with 9,990 more rows
…
``` r
################ We do grid approximation for Mikkel ################
# We do grid approximation

(m <-
 tibble(p_grid            = seq(from = 0, to = 1, length.out = 1e4),  # define grid
        prior             = 1) %>%                                   # define prior
   mutate(likelihood      = dbinom(66, size = 132, prob = p_grid)) %>%  # compute likelihood at each value in grid
   mutate(unstd_posterior = likelihood * prior) %>%                  # compute product of likelihood and prior
   mutate(posterior       = unstd_posterior / sum(unstd_posterior))  # standardize the posterior, so it sums to 1
)
```

    ## # A tibble: 10,000 x 5
    ##      p_grid prior likelihood unstd_posterior posterior
    ##       <dbl> <dbl>      <dbl>           <dbl>     <dbl>
    ##  1 0            1  0.              0.        0.       
    ##  2 0.000100     1  3.77e-226       3.77e-226 5.02e-228
    ##  3 0.000200     1  2.77e-206       2.77e-206 3.68e-208
    ##  4 0.000300     1  1.15e-194       1.15e-194 1.53e-196
    ##  5 0.000400     1  2.01e-186       2.01e-186 2.68e-188
    ##  6 0.000500     1  4.98e-180       4.98e-180 6.63e-182
    ##  7 0.000600     1  8.33e-175       8.33e-175 1.11e-176
    ##  8 0.000700     1  2.17e-170       2.17e-170 2.88e-172
    ##  9 0.000800     1  1.45e-166       1.45e-166 1.93e-168
    ## 10 0.000900     1  3.42e-163       3.42e-163 4.55e-165
    ## # ... with 9,990 more rows
…
``` r
### Riccardo
# We make the new posterior from a new prior
(r <-
 tibble(p_grid            = seq(from = 0, to = 1, length.out = 1e4),  # define grid
        prior             = dnorm(p_grid, mean = 0.8, sd = 0.2)) %>%                                   # define prior
   mutate(likelihood      = dbinom(3, size = 6, prob = p_grid)) %>%  # compute likelihood at each value in grid
   mutate(unstd_posterior = likelihood * prior) %>%                  # compute product of likelihood and prior
   mutate(posterior       = unstd_posterior / sum(unstd_posterior))  # standardize the posterior, so it sums to 1
)
```

    ## # A tibble: 10,000 x 5
    ##      p_grid    prior likelihood unstd_posterior posterior
    ##       <dbl>    <dbl>      <dbl>           <dbl>     <dbl>
    ##  1 0        0.000669   0.              0.        0.      
    ##  2 0.000100 0.000670   2.00e-11        1.34e-14  1.17e-17
    ##  3 0.000200 0.000672   1.60e-10        1.07e-13  9.39e-17
    ##  4 0.000300 0.000673   5.40e-10        3.63e-13  3.17e-16
    ##  5 0.000400 0.000675   1.28e- 9        8.63e-13  7.54e-16
    ##  6 0.000500 0.000676   2.50e- 9        1.69e-12  1.47e-15
    ##  7 0.000600 0.000677   4.31e- 9        2.92e-12  2.55e-15
    ##  8 0.000700 0.000679   6.85e- 9        4.65e-12  4.06e-15
    ##  9 0.000800 0.000680   1.02e- 8        6.95e-12  6.07e-15
    ## 10 0.000900 0.000681   1.45e- 8        9.91e-12  8.66e-15
    ## # ... with 9,990 more rows
…
``` r
### Kristian
# We make the new posterior from a new prior
(k <-
 tibble(p_grid            = seq(from = 0, to = 1, length.out = 1e4),  # define grid
        prior             = dnorm(p_grid, mean = 0.8, sd = 0.2)) %>%                                   # define prior
   mutate(likelihood      = dbinom(2, size = 2, prob = p_grid)) %>%  # compute likelihood at each value in grid
   mutate(unstd_posterior = likelihood * prior) %>%                  # compute product of likelihood and prior
   mutate(posterior       = unstd_posterior / sum(unstd_posterior))  # standardize the posterior, so it sums to 1
)
```

    ## # A tibble: 10,000 x 5
    ##      p_grid    prior   likelihood unstd_posterior posterior
    ##       <dbl>    <dbl>        <dbl>           <dbl>     <dbl>
    ##  1 0        0.000669 0                   0.        0.      
    ##  2 0.000100 0.000670 0.0000000100        6.71e-12  1.38e-15
    ##  3 0.000200 0.000672 0.0000000400        2.69e-11  5.54e-15
    ##  4 0.000300 0.000673 0.0000000900        6.06e-11  1.25e-14
    ##  5 0.000400 0.000675 0.000000160         1.08e-10  2.23e-14
    ##  6 0.000500 0.000676 0.000000250         1.69e-10  3.48e-14
    ##  7 0.000600 0.000677 0.000000360         2.44e-10  5.03e-14
    ##  8 0.000700 0.000679 0.000000490         3.33e-10  6.86e-14
    ##  9 0.000800 0.000680 0.000000640         4.35e-10  8.97e-14
    ## 10 0.000900 0.000681 0.000000810         5.52e-10  1.14e-13
    ## # ... with 9,990 more rows
…
``` r
#### Josh
# We make the new posterior from a new prior
(j <-
 tibble(p_grid            = seq(from = 0, to = 1, length.out = 1e4),  # define grid
        prior             = dnorm(p_grid, mean = 0.8, sd = 0.2)) %>%                                   # define prior
   mutate(likelihood      = dbinom(160, size = 198, prob = p_grid)) %>%  # compute likelihood at each value in grid
   mutate(unstd_posterior = likelihood * prior) %>%                  # compute product of likelihood and prior
   mutate(posterior       = unstd_posterior / sum(unstd_posterior))  # standardize the posterior, so it sums to 1
)
```

    ## # A tibble: 10,000 x 5
    ##      p_grid    prior likelihood unstd_posterior posterior
    ##       <dbl>    <dbl>      <dbl>           <dbl>     <dbl>
    ##  1 0        0.000669          0               0         0
    ##  2 0.000100 0.000670          0               0         0
    ##  3 0.000200 0.000672          0               0         0
    ##  4 0.000300 0.000673          0               0         0
    ##  5 0.000400 0.000675          0               0         0
    ##  6 0.000500 0.000676          0               0         0
    ##  7 0.000600 0.000677          0               0         0
    ##  8 0.000700 0.000679          0               0         0
    ##  9 0.000800 0.000680          0               0         0
    ## 10 0.000900 0.000681          0               0         0
    ## # ... with 9,990 more rows
…
``` r
#Mikkel
# We make the new posterior from a new prior
(m <-
 tibble(p_grid            = seq(from = 0, to = 1, length.out = 10000),  # define grid
        prior             = dnorm(p_grid, mean = 0.8, sd = 0.2)) %>%                                   # define prior
   mutate(likelihood      = dbinom(66, size = 132, prob = p_grid)) %>%  # compute likelihood at each value in grid
   mutate(unstd_posterior = likelihood * prior) %>%                  # compute product of likelihood and prior
   mutate(posterior       = unstd_posterior / sum(unstd_posterior))  # standardize the posterior, so it sums to 1
)
```

    ## # A tibble: 10,000 x 5
    ##      p_grid    prior likelihood unstd_posterior posterior
    ##       <dbl>    <dbl>      <dbl>           <dbl>     <dbl>
    ##  1 0        0.000669  0.              0.        0.       
    ##  2 0.000100 0.000670  3.77e-226       2.53e-229 5.06e-231
    ##  3 0.000200 0.000672  2.77e-206       1.86e-209 3.72e-211
    ##  4 0.000300 0.000673  1.15e-194       7.75e-198 1.55e-199
    ##  5 0.000400 0.000675  2.01e-186       1.36e-189 2.72e-191
    ##  6 0.000500 0.000676  4.98e-180       3.37e-183 6.73e-185
    ##  7 0.000600 0.000677  8.33e-175       5.64e-178 1.13e-179
    ##  8 0.000700 0.000679  2.17e-170       1.47e-173 2.94e-175
    ##  9 0.000800 0.000680  1.45e-166       9.84e-170 1.97e-171
    ## 10 0.000900 0.000681  3.42e-163       2.33e-166 4.66e-168
    ## # ... with 9,990 more rows
…
We do with a uniform prior

``` r
### Riccardo
# We make the new posterior from a new prior
(r <-
 tibble(p_grid            = seq(from = 0, to = 1, length.out = 1e4),  # define grid
        prior             = 1) %>%                                   # define prior
   mutate(likelihood      = dbinom(3*100, size = 6*100, prob = p_grid)) %>%  # compute likelihood at each value in grid
   mutate(unstd_posterior = likelihood * prior) %>%                  # compute product of likelihood and prior
   mutate(posterior       = unstd_posterior / sum(unstd_posterior))  # standardize the posterior, so it sums to 1
)
```

    ## # A tibble: 10,000 x 5
    ##      p_grid prior likelihood unstd_posterior posterior
    ##       <dbl> <dbl>      <dbl>           <dbl>     <dbl>
    ##  1 0            1          0               0         0
    ##  2 0.000100     1          0               0         0
    ##  3 0.000200     1          0               0         0
    ##  4 0.000300     1          0               0         0
    ##  5 0.000400     1          0               0         0
    ##  6 0.000500     1          0               0         0
    ##  7 0.000600     1          0               0         0
    ##  8 0.000700     1          0               0         0
    ##  9 0.000800     1          0               0         0
    ## 10 0.000900     1          0               0         0
    ## # ... with 9,990 more rows
…
``` r
## Prior divided by the 20 grids for scaling

### Kristian
# We make the new posterior from a new prior
(k <-
 tibble(p_grid            = seq(from = 0, to = 1, length.out = 1e4),  # define grid
        prior             = 1) %>%                                   # define prior
   mutate(likelihood      = dbinom(2*100, size = 2*100, prob = p_grid)) %>%  # compute likelihood at each value in grid
   mutate(unstd_posterior = likelihood * prior) %>%                  # compute product of likelihood and prior
   mutate(posterior       = unstd_posterior / sum(unstd_posterior))  # standardize the posterior, so it sums to 1
)
```

    ## # A tibble: 10,000 x 5
    ##      p_grid prior likelihood unstd_posterior posterior
    ##       <dbl> <dbl>      <dbl>           <dbl>     <dbl>
    ##  1 0            1          0               0         0
    ##  2 0.000100     1          0               0         0
    ##  3 0.000200     1          0               0         0
    ##  4 0.000300     1          0               0         0
    ##  5 0.000400     1          0               0         0
    ##  6 0.000500     1          0               0         0
    ##  7 0.000600     1          0               0         0
    ##  8 0.000700     1          0               0         0
    ##  9 0.000800     1          0               0         0
    ## 10 0.000900     1          0               0         0
    ## # ... with 9,990 more rows
…
``` r
## Prior divided by the 20 grids for scaling

#### Josh
# We make the new posterior from a new prior
(j <-
 tibble(p_grid            = seq(from = 0, to = 1, length.out = 1e4),  # define grid
        prior             = 1) %>%                                   # define prior
   mutate(likelihood      = dbinom(160*100, size = 198*100, prob = p_grid)) %>%  # compute likelihood at each value in grid
   mutate(unstd_posterior = likelihood * prior) %>%                  # compute product of likelihood and prior
   mutate(posterior       = unstd_posterior / sum(unstd_posterior))  # standardize the posterior, so it sums to 1
)
```

    ## # A tibble: 10,000 x 5
    ##      p_grid prior likelihood unstd_posterior posterior
    ##       <dbl> <dbl>      <dbl>           <dbl>     <dbl>
    ##  1 0            1          0               0         0
    ##  2 0.000100     1          0               0         0
    ##  3 0.000200     1          0               0         0
    ##  4 0.000300     1          0               0         0
    ##  5 0.000400     1          0               0         0
    ##  6 0.000500     1          0               0         0
    ##  7 0.000600     1          0               0         0
    ##  8 0.000700     1          0               0         0
    ##  9 0.000800     1          0               0         0
    ## 10 0.000900     1          0               0         0
    ## # ... with 9,990 more rows
…
``` r
#Mikkel
# We make the new posterior from a new prior
(m <-
 tibble(p_grid            = seq(from = 0, to = 1, length.out = 1e4),  # define grid
        prior             = 1) %>%                                   # define prior
   mutate(likelihood      = dbinom(66*100, size = 132*100, prob = p_grid)) %>%  # compute likelihood at each value in grid
   mutate(unstd_posterior = likelihood * prior) %>%                  # compute product of likelihood and prior
   mutate(posterior       = unstd_posterior / sum(unstd_posterior))  # standardize the posterior, so it sums to 1
)
```

    ## # A tibble: 10,000 x 5
    ##      p_grid prior likelihood unstd_posterior posterior
    ##       <dbl> <dbl>      <dbl>           <dbl>     <dbl>
    ##  1 0            1          0               0         0
    ##  2 0.000100     1          0               0         0
    ##  3 0.000200     1          0               0         0
    ##  4 0.000300     1          0               0         0
    ##  5 0.000400     1          0               0         0
    ##  6 0.000500     1          0               0         0
    ##  7 0.000600     1          0               0         0
    ##  8 0.000700     1          0               0         0
    ##  9 0.000800     1          0               0         0
    ## 10 0.000900     1          0               0         0
    ## # ... with 9,990 more rows
…
We do with the normal prior

``` r
### Riccardo
# We make the new posterior from a new prior
(r <-
 tibble(p_grid            = seq(from = 0, to = 1, length.out = 1e4),  # define grid
        prior             = dnorm(p_grid, mean = 0.8, sd = 0.2)) %>%                                   # define prior
   mutate(likelihood      = dbinom(3*100, size = 6*100, prob = p_grid)) %>%  # compute likelihood at each value in grid
   mutate(unstd_posterior = likelihood * prior) %>%                  # compute product of likelihood and prior
   mutate(posterior       = unstd_posterior / sum(unstd_posterior))  # standardize the posterior, so it sums to 1
)
```

    ## # A tibble: 10,000 x 5
    ##      p_grid    prior likelihood unstd_posterior posterior
    ##       <dbl>    <dbl>      <dbl>           <dbl>     <dbl>
    ##  1 0        0.000669          0               0         0
    ##  2 0.000100 0.000670          0               0         0
    ##  3 0.000200 0.000672          0               0         0
    ##  4 0.000300 0.000673          0               0         0
    ##  5 0.000400 0.000675          0               0         0
    ##  6 0.000500 0.000676          0               0         0
    ##  7 0.000600 0.000677          0               0         0
    ##  8 0.000700 0.000679          0               0         0
    ##  9 0.000800 0.000680          0               0         0
    ## 10 0.000900 0.000681          0               0         0
    ## # ... with 9,990 more rows
…
